(export (version D)
  (design
    (source "/home/fern/KiCad Projects/test/test.sch")
    (date "Mon 10 May 2021 09:42:02 AM EDT")
    (tool "Eeschema 5.1.10-88a1d61d58~88~ubuntu20.10.1")
    (sheet (number 1) (name /) (tstamps /)
      (title_block
        (title)
        (company)
        (rev)
        (date)
        (source test.sch)
        (comment (number 1) (value ""))
        (comment (number 2) (value ""))
        (comment (number 3) (value ""))
        (comment (number 4) (value "")))))
  (components
    (comp (ref Throughole1)
      (value Conn_01x10_Female)
      (footprint Connector_PinHeader_2.54mm:PinHeader_1x10_P2.54mm_Vertical_No_Outline)
      (datasheet ~)
      (libsource (lib Connector) (part Conn_01x10_Female) (description "Generic connector, single row, 01x10, script generated (kicad-library-utils/schlib/autogen/connector/)"))
      (sheetpath (names /) (tstamps /))
      (tstamp 6098B993))
    (comp (ref Throughole2)
      (value Conn_01x10_Female)
      (footprint Connector_PinHeader_2.54mm:PinHeader_1x10_P2.54mm_Vertical_No_Outline_No_First_Pin)
      (datasheet ~)
      (libsource (lib Connector) (part Conn_01x10_Female) (description "Generic connector, single row, 01x10, script generated (kicad-library-utils/schlib/autogen/connector/)"))
      (sheetpath (names /) (tstamps /))
      (tstamp 6098E168))
    (comp (ref SAMTECH1)
      (value SS4-10-3.00-L-D-K-TR)
      (footprint SS4-10-3.00-L-D-K-TR:SS410350LDKTR)
      (datasheet http://suddendocs.samtec.com/prints/ss4-xx-x.xx-x-d-x-xx-tr-mkt.pdf)
      (fields
        (field (name "Arrow Part Number") SS4-10-3.00-L-D-K-TR)
        (field (name "Arrow Price/Stock") https://www.arrow.com/en/products/ss4-10-3.00-l-d-k-tr/samtec)
        (field (name Description) "Samtec SS4 Series 0.4mm 20 Way 2 Row Straight PCB Socket Surface Mount Board to Board")
        (field (name Height) 4)
        (field (name Manufacturer_Name) SAMTEC)
        (field (name Manufacturer_Part_Number) SS4-10-3.00-L-D-K-TR)
        (field (name "Mouser Part Number") 200-SS4103.00LDKTR)
        (field (name "Mouser Price/Stock") https://www.mouser.co.uk/ProductDetail/Samtec/SS4-10-300-L-D-K-TR?qs=jyzYFa4oMQh6w3qs7L%252B%2FJA%3D%3D))
      (libsource (lib SS4-10-3.00-L-D-K-TR) (part SS4-10-3.00-L-D-K-TR) (description "Samtec SS4 Series 0.4mm 20 Way 2 Row Straight PCB Socket Surface Mount Board to Board"))
      (sheetpath (names /) (tstamps /))
      (tstamp 60988A4A)))
  (libparts
    (libpart (lib Connector) (part Conn_01x10_Female)
      (description "Generic connector, single row, 01x10, script generated (kicad-library-utils/schlib/autogen/connector/)")
      (docs ~)
      (footprints
        (fp Connector*:*_1x??_*))
      (fields
        (field (name Reference) J)
        (field (name Value) Conn_01x10_Female))
      (pins
        (pin (num 1) (name Pin_1) (type passive))
        (pin (num 2) (name Pin_2) (type passive))
        (pin (num 3) (name Pin_3) (type passive))
        (pin (num 4) (name Pin_4) (type passive))
        (pin (num 5) (name Pin_5) (type passive))
        (pin (num 6) (name Pin_6) (type passive))
        (pin (num 7) (name Pin_7) (type passive))
        (pin (num 8) (name Pin_8) (type passive))
        (pin (num 9) (name Pin_9) (type passive))
        (pin (num 10) (name Pin_10) (type passive))))
    (libpart (lib SS4-10-3.00-L-D-K-TR) (part SS4-10-3.00-L-D-K-TR)
      (description "Samtec SS4 Series 0.4mm 20 Way 2 Row Straight PCB Socket Surface Mount Board to Board")
      (docs http://suddendocs.samtec.com/prints/ss4-xx-x.xx-x-d-x-xx-tr-mkt.pdf)
      (fields
        (field (name Reference) J)
        (field (name Value) SS4-10-3.00-L-D-K-TR)
        (field (name Footprint) SS410350LDKTR)
        (field (name Datasheet) http://suddendocs.samtec.com/prints/ss4-xx-x.xx-x-d-x-xx-tr-mkt.pdf)
        (field (name Description) "Samtec SS4 Series 0.4mm 20 Way 2 Row Straight PCB Socket Surface Mount Board to Board")
        (field (name Height) 4)
        (field (name Manufacturer_Name) SAMTEC)
        (field (name Manufacturer_Part_Number) SS4-10-3.00-L-D-K-TR)
        (field (name "Mouser Part Number") 200-SS4103.00LDKTR)
        (field (name "Mouser Price/Stock") https://www.mouser.co.uk/ProductDetail/Samtec/SS4-10-300-L-D-K-TR?qs=jyzYFa4oMQh6w3qs7L%252B%2FJA%3D%3D)
        (field (name "Arrow Part Number") SS4-10-3.00-L-D-K-TR)
        (field (name "Arrow Price/Stock") https://www.arrow.com/en/products/ss4-10-3.00-l-d-k-tr/samtec))
      (pins
        (pin (num 1) (name 1) (type passive))
        (pin (num 2) (name 2) (type passive))
        (pin (num 3) (name 3) (type passive))
        (pin (num 4) (name 4) (type passive))
        (pin (num 5) (name 5) (type passive))
        (pin (num 6) (name 6) (type passive))
        (pin (num 7) (name 7) (type passive))
        (pin (num 8) (name 8) (type passive))
        (pin (num 9) (name 9) (type passive))
        (pin (num 10) (name 10) (type passive))
        (pin (num 11) (name 11) (type passive))
        (pin (num 12) (name 12) (type passive))
        (pin (num 13) (name 13) (type passive))
        (pin (num 14) (name 14) (type passive))
        (pin (num 15) (name 15) (type passive))
        (pin (num 16) (name 16) (type passive))
        (pin (num 17) (name 17) (type passive))
        (pin (num 18) (name 18) (type passive))
        (pin (num 19) (name 19) (type passive))
        (pin (num 20) (name 20) (type passive)))))
  (libraries
    (library (logical Connector)
      (uri /usr/share/kicad/library/Connector.lib))
    (library (logical SS4-10-3.00-L-D-K-TR)
      (uri "/home/fern/KiCad Libraries/LIB_SS4-10-3.00-L-D-K-TR/SS4-10-3.00-L-D-K-TR/KiCad/SS4-10-3.00-L-D-K-TR.lib")))
  (nets
    (net (code 1) (name "Net-(SAMTECH1-Pad9)")
      (node (ref Throughole1) (pin 9))
      (node (ref SAMTECH1) (pin 9)))
    (net (code 2) (name "Net-(SAMTECH1-Pad18)")
      (node (ref SAMTECH1) (pin 18))
      (node (ref Throughole2) (pin 8)))
    (net (code 3) (name "Net-(SAMTECH1-Pad19)")
      (node (ref SAMTECH1) (pin 19))
      (node (ref Throughole2) (pin 9)))
    (net (code 4) (name "Net-(SAMTECH1-Pad20)")
      (node (ref SAMTECH1) (pin 20))
      (node (ref Throughole2) (pin 10)))
    (net (code 5) (name "Net-(SAMTECH1-Pad10)")
      (node (ref Throughole1) (pin 10))
      (node (ref SAMTECH1) (pin 10)))
    (net (code 6) (name "Net-(SAMTECH1-Pad8)")
      (node (ref SAMTECH1) (pin 8))
      (node (ref Throughole1) (pin 8)))
    (net (code 7) (name "Net-(SAMTECH1-Pad7)")
      (node (ref Throughole1) (pin 7))
      (node (ref SAMTECH1) (pin 7)))
    (net (code 8) (name "Net-(SAMTECH1-Pad6)")
      (node (ref Throughole1) (pin 6))
      (node (ref SAMTECH1) (pin 6)))
    (net (code 9) (name "Net-(SAMTECH1-Pad14)")
      (node (ref Throughole2) (pin 4))
      (node (ref SAMTECH1) (pin 14)))
    (net (code 10) (name "Net-(SAMTECH1-Pad11)")
      (node (ref Throughole2) (pin 1))
      (node (ref SAMTECH1) (pin 11)))
    (net (code 11) (name "Net-(SAMTECH1-Pad12)")
      (node (ref Throughole2) (pin 2))
      (node (ref SAMTECH1) (pin 12)))
    (net (code 12) (name "Net-(SAMTECH1-Pad13)")
      (node (ref SAMTECH1) (pin 13))
      (node (ref Throughole2) (pin 3)))
    (net (code 13) (name "Net-(SAMTECH1-Pad15)")
      (node (ref Throughole2) (pin 5))
      (node (ref SAMTECH1) (pin 15)))
    (net (code 14) (name "Net-(SAMTECH1-Pad16)")
      (node (ref Throughole2) (pin 6))
      (node (ref SAMTECH1) (pin 16)))
    (net (code 15) (name "Net-(SAMTECH1-Pad17)")
      (node (ref SAMTECH1) (pin 17))
      (node (ref Throughole2) (pin 7)))
    (net (code 16) (name "Net-(SAMTECH1-Pad5)")
      (node (ref Throughole1) (pin 5))
      (node (ref SAMTECH1) (pin 5)))
    (net (code 17) (name "Net-(SAMTECH1-Pad4)")
      (node (ref SAMTECH1) (pin 4))
      (node (ref Throughole1) (pin 4)))
    (net (code 18) (name "Net-(SAMTECH1-Pad3)")
      (node (ref SAMTECH1) (pin 3))
      (node (ref Throughole1) (pin 3)))
    (net (code 19) (name "Net-(SAMTECH1-Pad2)")
      (node (ref SAMTECH1) (pin 2))
      (node (ref Throughole1) (pin 2)))
    (net (code 20) (name "Net-(SAMTECH1-Pad1)")
      (node (ref Throughole1) (pin 1))
      (node (ref SAMTECH1) (pin 1)))))