%TF.GenerationSoftware,KiCad,Pcbnew,5.1.10-88a1d61d58~88~ubuntu20.10.1*%
%TF.CreationDate,2021-05-10T23:17:56-04:00*%
%TF.ProjectId,test_v2,74657374-5f76-4322-9e6b-696361645f70,rev?*%
%TF.SameCoordinates,Original*%
%TF.FileFunction,Soldermask,Bot*%
%TF.FilePolarity,Negative*%
%FSLAX46Y46*%
G04 Gerber Fmt 4.6, Leading zero omitted, Abs format (unit mm)*
G04 Created by KiCad (PCBNEW 5.1.10-88a1d61d58~88~ubuntu20.10.1) date 2021-05-10 23:17:56*
%MOMM*%
%LPD*%
G01*
G04 APERTURE LIST*
%ADD10R,1.700000X1.700000*%
%ADD11O,1.700000X1.700000*%
%ADD12C,1.700000*%
G04 APERTURE END LIST*
D10*
%TO.C,Throughole1*%
X87884000Y-91440000D03*
D11*
X87884000Y-93980000D03*
X87884000Y-96520000D03*
X87884000Y-99060000D03*
X87884000Y-101600000D03*
X87884000Y-104140000D03*
X87884000Y-106680000D03*
X87884000Y-109220000D03*
X87884000Y-111760000D03*
X87884000Y-114300000D03*
%TD*%
D12*
%TO.C,Throughole2*%
X125984000Y-91440000D03*
D11*
X125984000Y-93980000D03*
X125984000Y-96520000D03*
X125984000Y-99060000D03*
X125984000Y-101600000D03*
X125984000Y-104140000D03*
X125984000Y-106680000D03*
X125984000Y-109220000D03*
X125984000Y-111760000D03*
X125984000Y-114300000D03*
%TD*%
M02*
