%TF.GenerationSoftware,KiCad,Pcbnew,5.1.10-88a1d61d58~88~ubuntu20.10.1*%
%TF.CreationDate,2021-05-10T23:17:56-04:00*%
%TF.ProjectId,test_v2,74657374-5f76-4322-9e6b-696361645f70,rev?*%
%TF.SameCoordinates,Original*%
%TF.FileFunction,Legend,Top*%
%TF.FilePolarity,Positive*%
%FSLAX46Y46*%
G04 Gerber Fmt 4.6, Leading zero omitted, Abs format (unit mm)*
G04 Created by KiCad (PCBNEW 5.1.10-88a1d61d58~88~ubuntu20.10.1) date 2021-05-10 23:17:56*
%MOMM*%
%LPD*%
G01*
G04 APERTURE LIST*
%ADD10C,0.150000*%
%ADD11C,0.200000*%
%ADD12C,0.100000*%
G04 APERTURE END LIST*
D10*
X89695976Y-109624761D02*
X89838833Y-109672380D01*
X90076928Y-109672380D01*
X90172166Y-109624761D01*
X90219785Y-109577142D01*
X90267404Y-109481904D01*
X90267404Y-109386666D01*
X90219785Y-109291428D01*
X90172166Y-109243809D01*
X90076928Y-109196190D01*
X89886452Y-109148571D01*
X89791214Y-109100952D01*
X89743595Y-109053333D01*
X89695976Y-108958095D01*
X89695976Y-108862857D01*
X89743595Y-108767619D01*
X89791214Y-108720000D01*
X89886452Y-108672380D01*
X90124547Y-108672380D01*
X90267404Y-108720000D01*
X90695976Y-109672380D02*
X90695976Y-108672380D01*
X91695976Y-108720000D02*
X91600738Y-108672380D01*
X91457880Y-108672380D01*
X91315023Y-108720000D01*
X91219785Y-108815238D01*
X91172166Y-108910476D01*
X91124547Y-109100952D01*
X91124547Y-109243809D01*
X91172166Y-109434285D01*
X91219785Y-109529523D01*
X91315023Y-109624761D01*
X91457880Y-109672380D01*
X91553119Y-109672380D01*
X91695976Y-109624761D01*
X91743595Y-109577142D01*
X91743595Y-109243809D01*
X91553119Y-109243809D01*
X91934071Y-109767619D02*
X92695976Y-109767619D01*
X93457880Y-108720000D02*
X93362642Y-108672380D01*
X93219785Y-108672380D01*
X93076928Y-108720000D01*
X92981690Y-108815238D01*
X92934071Y-108910476D01*
X92886452Y-109100952D01*
X92886452Y-109243809D01*
X92934071Y-109434285D01*
X92981690Y-109529523D01*
X93076928Y-109624761D01*
X93219785Y-109672380D01*
X93315023Y-109672380D01*
X93457880Y-109624761D01*
X93505500Y-109577142D01*
X93505500Y-109243809D01*
X93315023Y-109243809D01*
X93934071Y-109672380D02*
X93934071Y-108672380D01*
X94505500Y-109672380D01*
X94505500Y-108672380D01*
X94981690Y-109672380D02*
X94981690Y-108672380D01*
X95219785Y-108672380D01*
X95362642Y-108720000D01*
X95457880Y-108815238D01*
X95505500Y-108910476D01*
X95553119Y-109100952D01*
X95553119Y-109243809D01*
X95505500Y-109434285D01*
X95457880Y-109529523D01*
X95362642Y-109624761D01*
X95219785Y-109672380D01*
X94981690Y-109672380D01*
X89743595Y-96448571D02*
X90076928Y-96448571D01*
X90219785Y-96972380D02*
X89743595Y-96972380D01*
X89743595Y-95972380D01*
X90219785Y-95972380D01*
X90553119Y-95972380D02*
X91219785Y-96972380D01*
X91219785Y-95972380D02*
X90553119Y-96972380D01*
X91457880Y-95972380D02*
X92029309Y-95972380D01*
X91743595Y-96972380D02*
X91743595Y-95972380D01*
X92124547Y-97067619D02*
X92886452Y-97067619D01*
X93648357Y-96020000D02*
X93553119Y-95972380D01*
X93410261Y-95972380D01*
X93267404Y-96020000D01*
X93172166Y-96115238D01*
X93124547Y-96210476D01*
X93076928Y-96400952D01*
X93076928Y-96543809D01*
X93124547Y-96734285D01*
X93172166Y-96829523D01*
X93267404Y-96924761D01*
X93410261Y-96972380D01*
X93505500Y-96972380D01*
X93648357Y-96924761D01*
X93695976Y-96877142D01*
X93695976Y-96543809D01*
X93505500Y-96543809D01*
X94124547Y-96972380D02*
X94124547Y-95972380D01*
X94695976Y-96972380D01*
X94695976Y-95972380D01*
X95172166Y-96972380D02*
X95172166Y-95972380D01*
X95410261Y-95972380D01*
X95553119Y-96020000D01*
X95648357Y-96115238D01*
X95695976Y-96210476D01*
X95743595Y-96400952D01*
X95743595Y-96543809D01*
X95695976Y-96734285D01*
X95648357Y-96829523D01*
X95553119Y-96924761D01*
X95410261Y-96972380D01*
X95172166Y-96972380D01*
X89743595Y-104592380D02*
X89743595Y-103592380D01*
X89981690Y-103592380D01*
X90124547Y-103640000D01*
X90219785Y-103735238D01*
X90267404Y-103830476D01*
X90315023Y-104020952D01*
X90315023Y-104163809D01*
X90267404Y-104354285D01*
X90219785Y-104449523D01*
X90124547Y-104544761D01*
X89981690Y-104592380D01*
X89743595Y-104592380D01*
X91076928Y-104068571D02*
X90743595Y-104068571D01*
X90743595Y-104592380D02*
X90743595Y-103592380D01*
X91219785Y-103592380D01*
X91362642Y-104687619D02*
X92124547Y-104687619D01*
X92315023Y-104544761D02*
X92457880Y-104592380D01*
X92695976Y-104592380D01*
X92791214Y-104544761D01*
X92838833Y-104497142D01*
X92886452Y-104401904D01*
X92886452Y-104306666D01*
X92838833Y-104211428D01*
X92791214Y-104163809D01*
X92695976Y-104116190D01*
X92505500Y-104068571D01*
X92410261Y-104020952D01*
X92362642Y-103973333D01*
X92315023Y-103878095D01*
X92315023Y-103782857D01*
X92362642Y-103687619D01*
X92410261Y-103640000D01*
X92505500Y-103592380D01*
X92743595Y-103592380D01*
X92886452Y-103640000D01*
X93076928Y-104687619D02*
X93838833Y-104687619D01*
X93934071Y-103592380D02*
X94505500Y-103592380D01*
X94219785Y-104592380D02*
X94219785Y-103592380D01*
X94743595Y-103592380D02*
X95410261Y-104592380D01*
X95410261Y-103592380D02*
X94743595Y-104592380D01*
X118680023Y-114752380D02*
X118680023Y-113752380D01*
X119060976Y-113752380D01*
X119156214Y-113800000D01*
X119203833Y-113847619D01*
X119251452Y-113942857D01*
X119251452Y-114085714D01*
X119203833Y-114180952D01*
X119156214Y-114228571D01*
X119060976Y-114276190D01*
X118680023Y-114276190D01*
X119584785Y-113752380D02*
X119822880Y-114752380D01*
X120013357Y-114038095D01*
X120203833Y-114752380D01*
X120441928Y-113752380D01*
X121394309Y-114752380D02*
X121060976Y-114276190D01*
X120822880Y-114752380D02*
X120822880Y-113752380D01*
X121203833Y-113752380D01*
X121299071Y-113800000D01*
X121346690Y-113847619D01*
X121394309Y-113942857D01*
X121394309Y-114085714D01*
X121346690Y-114180952D01*
X121299071Y-114228571D01*
X121203833Y-114276190D01*
X120822880Y-114276190D01*
X121584785Y-114847619D02*
X122346690Y-114847619D01*
X122584785Y-114752380D02*
X122584785Y-113752380D01*
X123060976Y-114752380D02*
X123060976Y-113752380D01*
X123632404Y-114752380D01*
X123632404Y-113752380D01*
X124108595Y-114752380D02*
X124108595Y-113752380D01*
X124346690Y-113752380D01*
X124489547Y-113800000D01*
X124584785Y-113895238D01*
X124632404Y-113990476D01*
X124680023Y-114180952D01*
X124680023Y-114323809D01*
X124632404Y-114514285D01*
X124584785Y-114609523D01*
X124489547Y-114704761D01*
X124346690Y-114752380D01*
X124108595Y-114752380D01*
X119108595Y-112212380D02*
X119108595Y-111212380D01*
X119680023Y-112212380D01*
X119680023Y-111212380D01*
X120156214Y-111688571D02*
X120489547Y-111688571D01*
X120632404Y-112212380D02*
X120156214Y-112212380D01*
X120156214Y-111212380D01*
X120632404Y-111212380D01*
X120918119Y-111212380D02*
X121489547Y-111212380D01*
X121203833Y-112212380D02*
X121203833Y-111212380D01*
X121584785Y-112307619D02*
X122346690Y-112307619D01*
X122537166Y-111926666D02*
X123013357Y-111926666D01*
X122441928Y-112212380D02*
X122775261Y-111212380D01*
X123108595Y-112212380D01*
X123299071Y-111212380D02*
X123632404Y-112212380D01*
X123965738Y-111212380D01*
X124775261Y-112212380D02*
X124299071Y-112212380D01*
X124299071Y-111212380D01*
X118822880Y-109624761D02*
X118965738Y-109672380D01*
X119203833Y-109672380D01*
X119299071Y-109624761D01*
X119346690Y-109577142D01*
X119394309Y-109481904D01*
X119394309Y-109386666D01*
X119346690Y-109291428D01*
X119299071Y-109243809D01*
X119203833Y-109196190D01*
X119013357Y-109148571D01*
X118918119Y-109100952D01*
X118870500Y-109053333D01*
X118822880Y-108958095D01*
X118822880Y-108862857D01*
X118870500Y-108767619D01*
X118918119Y-108720000D01*
X119013357Y-108672380D01*
X119251452Y-108672380D01*
X119394309Y-108720000D01*
X119822880Y-109672380D02*
X119822880Y-108672380D01*
X120822880Y-108720000D02*
X120727642Y-108672380D01*
X120584785Y-108672380D01*
X120441928Y-108720000D01*
X120346690Y-108815238D01*
X120299071Y-108910476D01*
X120251452Y-109100952D01*
X120251452Y-109243809D01*
X120299071Y-109434285D01*
X120346690Y-109529523D01*
X120441928Y-109624761D01*
X120584785Y-109672380D01*
X120680023Y-109672380D01*
X120822880Y-109624761D01*
X120870500Y-109577142D01*
X120870500Y-109243809D01*
X120680023Y-109243809D01*
X121060976Y-109767619D02*
X121822880Y-109767619D01*
X122584785Y-108720000D02*
X122489547Y-108672380D01*
X122346690Y-108672380D01*
X122203833Y-108720000D01*
X122108595Y-108815238D01*
X122060976Y-108910476D01*
X122013357Y-109100952D01*
X122013357Y-109243809D01*
X122060976Y-109434285D01*
X122108595Y-109529523D01*
X122203833Y-109624761D01*
X122346690Y-109672380D01*
X122441928Y-109672380D01*
X122584785Y-109624761D01*
X122632404Y-109577142D01*
X122632404Y-109243809D01*
X122441928Y-109243809D01*
X123060976Y-109672380D02*
X123060976Y-108672380D01*
X123632404Y-109672380D01*
X123632404Y-108672380D01*
X124108595Y-109672380D02*
X124108595Y-108672380D01*
X124346690Y-108672380D01*
X124489547Y-108720000D01*
X124584785Y-108815238D01*
X124632404Y-108910476D01*
X124680023Y-109100952D01*
X124680023Y-109243809D01*
X124632404Y-109434285D01*
X124584785Y-109529523D01*
X124489547Y-109624761D01*
X124346690Y-109672380D01*
X124108595Y-109672380D01*
X118822880Y-102004761D02*
X118965738Y-102052380D01*
X119203833Y-102052380D01*
X119299071Y-102004761D01*
X119346690Y-101957142D01*
X119394309Y-101861904D01*
X119394309Y-101766666D01*
X119346690Y-101671428D01*
X119299071Y-101623809D01*
X119203833Y-101576190D01*
X119013357Y-101528571D01*
X118918119Y-101480952D01*
X118870500Y-101433333D01*
X118822880Y-101338095D01*
X118822880Y-101242857D01*
X118870500Y-101147619D01*
X118918119Y-101100000D01*
X119013357Y-101052380D01*
X119251452Y-101052380D01*
X119394309Y-101100000D01*
X119822880Y-102052380D02*
X119822880Y-101052380D01*
X120822880Y-101100000D02*
X120727642Y-101052380D01*
X120584785Y-101052380D01*
X120441928Y-101100000D01*
X120346690Y-101195238D01*
X120299071Y-101290476D01*
X120251452Y-101480952D01*
X120251452Y-101623809D01*
X120299071Y-101814285D01*
X120346690Y-101909523D01*
X120441928Y-102004761D01*
X120584785Y-102052380D01*
X120680023Y-102052380D01*
X120822880Y-102004761D01*
X120870500Y-101957142D01*
X120870500Y-101623809D01*
X120680023Y-101623809D01*
X121060976Y-102147619D02*
X121822880Y-102147619D01*
X122584785Y-101100000D02*
X122489547Y-101052380D01*
X122346690Y-101052380D01*
X122203833Y-101100000D01*
X122108595Y-101195238D01*
X122060976Y-101290476D01*
X122013357Y-101480952D01*
X122013357Y-101623809D01*
X122060976Y-101814285D01*
X122108595Y-101909523D01*
X122203833Y-102004761D01*
X122346690Y-102052380D01*
X122441928Y-102052380D01*
X122584785Y-102004761D01*
X122632404Y-101957142D01*
X122632404Y-101623809D01*
X122441928Y-101623809D01*
X123060976Y-102052380D02*
X123060976Y-101052380D01*
X123632404Y-102052380D01*
X123632404Y-101052380D01*
X124108595Y-102052380D02*
X124108595Y-101052380D01*
X124346690Y-101052380D01*
X124489547Y-101100000D01*
X124584785Y-101195238D01*
X124632404Y-101290476D01*
X124680023Y-101480952D01*
X124680023Y-101623809D01*
X124632404Y-101814285D01*
X124584785Y-101909523D01*
X124489547Y-102004761D01*
X124346690Y-102052380D01*
X124108595Y-102052380D01*
X119727642Y-99512380D02*
X119727642Y-98512380D01*
X119965738Y-98512380D01*
X120108595Y-98560000D01*
X120203833Y-98655238D01*
X120251452Y-98750476D01*
X120299071Y-98940952D01*
X120299071Y-99083809D01*
X120251452Y-99274285D01*
X120203833Y-99369523D01*
X120108595Y-99464761D01*
X119965738Y-99512380D01*
X119727642Y-99512380D01*
X121060976Y-98988571D02*
X120727642Y-98988571D01*
X120727642Y-99512380D02*
X120727642Y-98512380D01*
X121203833Y-98512380D01*
X121346690Y-99607619D02*
X122108595Y-99607619D01*
X122346690Y-99512380D02*
X122346690Y-98512380D01*
X122584785Y-98512380D01*
X122727642Y-98560000D01*
X122822880Y-98655238D01*
X122870500Y-98750476D01*
X122918119Y-98940952D01*
X122918119Y-99083809D01*
X122870500Y-99274285D01*
X122822880Y-99369523D01*
X122727642Y-99464761D01*
X122584785Y-99512380D01*
X122346690Y-99512380D01*
X123203833Y-98512380D02*
X123775261Y-98512380D01*
X123489547Y-99512380D02*
X123489547Y-98512380D01*
X124680023Y-99512380D02*
X124346690Y-99036190D01*
X124108595Y-99512380D02*
X124108595Y-98512380D01*
X124489547Y-98512380D01*
X124584785Y-98560000D01*
X124632404Y-98607619D01*
X124680023Y-98702857D01*
X124680023Y-98845714D01*
X124632404Y-98940952D01*
X124584785Y-98988571D01*
X124489547Y-99036190D01*
X124108595Y-99036190D01*
X119775261Y-96972380D02*
X119775261Y-95972380D01*
X120013357Y-95972380D01*
X120156214Y-96020000D01*
X120251452Y-96115238D01*
X120299071Y-96210476D01*
X120346690Y-96400952D01*
X120346690Y-96543809D01*
X120299071Y-96734285D01*
X120251452Y-96829523D01*
X120156214Y-96924761D01*
X120013357Y-96972380D01*
X119775261Y-96972380D01*
X121108595Y-96448571D02*
X120775261Y-96448571D01*
X120775261Y-96972380D02*
X120775261Y-95972380D01*
X121251452Y-95972380D01*
X121394309Y-97067619D02*
X122156214Y-97067619D01*
X122965738Y-96972380D02*
X122632404Y-96496190D01*
X122394309Y-96972380D02*
X122394309Y-95972380D01*
X122775261Y-95972380D01*
X122870500Y-96020000D01*
X122918119Y-96067619D01*
X122965738Y-96162857D01*
X122965738Y-96305714D01*
X122918119Y-96400952D01*
X122870500Y-96448571D01*
X122775261Y-96496190D01*
X122394309Y-96496190D01*
X123251452Y-95972380D02*
X123822880Y-95972380D01*
X123537166Y-96972380D02*
X123537166Y-95972380D01*
X124108595Y-96924761D02*
X124251452Y-96972380D01*
X124489547Y-96972380D01*
X124584785Y-96924761D01*
X124632404Y-96877142D01*
X124680023Y-96781904D01*
X124680023Y-96686666D01*
X124632404Y-96591428D01*
X124584785Y-96543809D01*
X124489547Y-96496190D01*
X124299071Y-96448571D01*
X124203833Y-96400952D01*
X124156214Y-96353333D01*
X124108595Y-96258095D01*
X124108595Y-96162857D01*
X124156214Y-96067619D01*
X124203833Y-96020000D01*
X124299071Y-95972380D01*
X124537166Y-95972380D01*
X124680023Y-96020000D01*
X121013357Y-94432380D02*
X121013357Y-93432380D01*
X121251452Y-93432380D01*
X121394309Y-93480000D01*
X121489547Y-93575238D01*
X121537166Y-93670476D01*
X121584785Y-93860952D01*
X121584785Y-94003809D01*
X121537166Y-94194285D01*
X121489547Y-94289523D01*
X121394309Y-94384761D01*
X121251452Y-94432380D01*
X121013357Y-94432380D01*
X122346690Y-93908571D02*
X122013357Y-93908571D01*
X122013357Y-94432380D02*
X122013357Y-93432380D01*
X122489547Y-93432380D01*
X122632404Y-94527619D02*
X123394309Y-94527619D01*
X124203833Y-94432380D02*
X123870500Y-93956190D01*
X123632404Y-94432380D02*
X123632404Y-93432380D01*
X124013357Y-93432380D01*
X124108595Y-93480000D01*
X124156214Y-93527619D01*
X124203833Y-93622857D01*
X124203833Y-93765714D01*
X124156214Y-93860952D01*
X124108595Y-93908571D01*
X124013357Y-93956190D01*
X123632404Y-93956190D01*
X124632404Y-94432380D02*
X124632404Y-93432380D01*
X119775261Y-91892380D02*
X119775261Y-90892380D01*
X120013357Y-90892380D01*
X120156214Y-90940000D01*
X120251452Y-91035238D01*
X120299071Y-91130476D01*
X120346690Y-91320952D01*
X120346690Y-91463809D01*
X120299071Y-91654285D01*
X120251452Y-91749523D01*
X120156214Y-91844761D01*
X120013357Y-91892380D01*
X119775261Y-91892380D01*
X121108595Y-91368571D02*
X120775261Y-91368571D01*
X120775261Y-91892380D02*
X120775261Y-90892380D01*
X121251452Y-90892380D01*
X121394309Y-91987619D02*
X122156214Y-91987619D01*
X122965738Y-91797142D02*
X122918119Y-91844761D01*
X122775261Y-91892380D01*
X122680023Y-91892380D01*
X122537166Y-91844761D01*
X122441928Y-91749523D01*
X122394309Y-91654285D01*
X122346690Y-91463809D01*
X122346690Y-91320952D01*
X122394309Y-91130476D01*
X122441928Y-91035238D01*
X122537166Y-90940000D01*
X122680023Y-90892380D01*
X122775261Y-90892380D01*
X122918119Y-90940000D01*
X122965738Y-90987619D01*
X123251452Y-90892380D02*
X123822880Y-90892380D01*
X123537166Y-91892380D02*
X123537166Y-90892380D01*
X124108595Y-91844761D02*
X124251452Y-91892380D01*
X124489547Y-91892380D01*
X124584785Y-91844761D01*
X124632404Y-91797142D01*
X124680023Y-91701904D01*
X124680023Y-91606666D01*
X124632404Y-91511428D01*
X124584785Y-91463809D01*
X124489547Y-91416190D01*
X124299071Y-91368571D01*
X124203833Y-91320952D01*
X124156214Y-91273333D01*
X124108595Y-91178095D01*
X124108595Y-91082857D01*
X124156214Y-90987619D01*
X124203833Y-90940000D01*
X124299071Y-90892380D01*
X124537166Y-90892380D01*
X124680023Y-90940000D01*
X89743595Y-114752380D02*
X89743595Y-113752380D01*
X89981690Y-113752380D01*
X90124547Y-113800000D01*
X90219785Y-113895238D01*
X90267404Y-113990476D01*
X90315023Y-114180952D01*
X90315023Y-114323809D01*
X90267404Y-114514285D01*
X90219785Y-114609523D01*
X90124547Y-114704761D01*
X89981690Y-114752380D01*
X89743595Y-114752380D01*
X91076928Y-114228571D02*
X90743595Y-114228571D01*
X90743595Y-114752380D02*
X90743595Y-113752380D01*
X91219785Y-113752380D01*
X91362642Y-114847619D02*
X92124547Y-114847619D01*
X92362642Y-114752380D02*
X92362642Y-113752380D01*
X92600738Y-113752380D01*
X92743595Y-113800000D01*
X92838833Y-113895238D01*
X92886452Y-113990476D01*
X92934071Y-114180952D01*
X92934071Y-114323809D01*
X92886452Y-114514285D01*
X92838833Y-114609523D01*
X92743595Y-114704761D01*
X92600738Y-114752380D01*
X92362642Y-114752380D01*
X93315023Y-114704761D02*
X93457880Y-114752380D01*
X93695976Y-114752380D01*
X93791214Y-114704761D01*
X93838833Y-114657142D01*
X93886452Y-114561904D01*
X93886452Y-114466666D01*
X93838833Y-114371428D01*
X93791214Y-114323809D01*
X93695976Y-114276190D01*
X93505500Y-114228571D01*
X93410261Y-114180952D01*
X93362642Y-114133333D01*
X93315023Y-114038095D01*
X93315023Y-113942857D01*
X93362642Y-113847619D01*
X93410261Y-113800000D01*
X93505500Y-113752380D01*
X93743595Y-113752380D01*
X93886452Y-113800000D01*
X94886452Y-114752380D02*
X94553119Y-114276190D01*
X94315023Y-114752380D02*
X94315023Y-113752380D01*
X94695976Y-113752380D01*
X94791214Y-113800000D01*
X94838833Y-113847619D01*
X94886452Y-113942857D01*
X94886452Y-114085714D01*
X94838833Y-114180952D01*
X94791214Y-114228571D01*
X94695976Y-114276190D01*
X94315023Y-114276190D01*
X89743595Y-112212380D02*
X89743595Y-111212380D01*
X89981690Y-111212380D01*
X90124547Y-111260000D01*
X90219785Y-111355238D01*
X90267404Y-111450476D01*
X90315023Y-111640952D01*
X90315023Y-111783809D01*
X90267404Y-111974285D01*
X90219785Y-112069523D01*
X90124547Y-112164761D01*
X89981690Y-112212380D01*
X89743595Y-112212380D01*
X91076928Y-111688571D02*
X90743595Y-111688571D01*
X90743595Y-112212380D02*
X90743595Y-111212380D01*
X91219785Y-111212380D01*
X91362642Y-112307619D02*
X92124547Y-112307619D01*
X92362642Y-112212380D02*
X92362642Y-111212380D01*
X92600738Y-111212380D01*
X92743595Y-111260000D01*
X92838833Y-111355238D01*
X92886452Y-111450476D01*
X92934071Y-111640952D01*
X92934071Y-111783809D01*
X92886452Y-111974285D01*
X92838833Y-112069523D01*
X92743595Y-112164761D01*
X92600738Y-112212380D01*
X92362642Y-112212380D01*
X93934071Y-112117142D02*
X93886452Y-112164761D01*
X93743595Y-112212380D01*
X93648357Y-112212380D01*
X93505500Y-112164761D01*
X93410261Y-112069523D01*
X93362642Y-111974285D01*
X93315023Y-111783809D01*
X93315023Y-111640952D01*
X93362642Y-111450476D01*
X93410261Y-111355238D01*
X93505500Y-111260000D01*
X93648357Y-111212380D01*
X93743595Y-111212380D01*
X93886452Y-111260000D01*
X93934071Y-111307619D01*
X94362642Y-112212380D02*
X94362642Y-111212380D01*
X94600738Y-111212380D01*
X94743595Y-111260000D01*
X94838833Y-111355238D01*
X94886452Y-111450476D01*
X94934071Y-111640952D01*
X94934071Y-111783809D01*
X94886452Y-111974285D01*
X94838833Y-112069523D01*
X94743595Y-112164761D01*
X94600738Y-112212380D01*
X94362642Y-112212380D01*
X89743595Y-107132380D02*
X89743595Y-106132380D01*
X89981690Y-106132380D01*
X90124547Y-106180000D01*
X90219785Y-106275238D01*
X90267404Y-106370476D01*
X90315023Y-106560952D01*
X90315023Y-106703809D01*
X90267404Y-106894285D01*
X90219785Y-106989523D01*
X90124547Y-107084761D01*
X89981690Y-107132380D01*
X89743595Y-107132380D01*
X91076928Y-106608571D02*
X90743595Y-106608571D01*
X90743595Y-107132380D02*
X90743595Y-106132380D01*
X91219785Y-106132380D01*
X91362642Y-107227619D02*
X92124547Y-107227619D01*
X92315023Y-107084761D02*
X92457880Y-107132380D01*
X92695976Y-107132380D01*
X92791214Y-107084761D01*
X92838833Y-107037142D01*
X92886452Y-106941904D01*
X92886452Y-106846666D01*
X92838833Y-106751428D01*
X92791214Y-106703809D01*
X92695976Y-106656190D01*
X92505500Y-106608571D01*
X92410261Y-106560952D01*
X92362642Y-106513333D01*
X92315023Y-106418095D01*
X92315023Y-106322857D01*
X92362642Y-106227619D01*
X92410261Y-106180000D01*
X92505500Y-106132380D01*
X92743595Y-106132380D01*
X92886452Y-106180000D01*
X93076928Y-107227619D02*
X93838833Y-107227619D01*
X94648357Y-107132380D02*
X94315023Y-106656190D01*
X94076928Y-107132380D02*
X94076928Y-106132380D01*
X94457880Y-106132380D01*
X94553119Y-106180000D01*
X94600738Y-106227619D01*
X94648357Y-106322857D01*
X94648357Y-106465714D01*
X94600738Y-106560952D01*
X94553119Y-106608571D01*
X94457880Y-106656190D01*
X94076928Y-106656190D01*
X94981690Y-106132380D02*
X95648357Y-107132380D01*
X95648357Y-106132380D02*
X94981690Y-107132380D01*
X89934071Y-101052380D02*
X90124547Y-101052380D01*
X90219785Y-101100000D01*
X90315023Y-101195238D01*
X90362642Y-101385714D01*
X90362642Y-101719047D01*
X90315023Y-101909523D01*
X90219785Y-102004761D01*
X90124547Y-102052380D01*
X89934071Y-102052380D01*
X89838833Y-102004761D01*
X89743595Y-101909523D01*
X89695976Y-101719047D01*
X89695976Y-101385714D01*
X89743595Y-101195238D01*
X89838833Y-101100000D01*
X89934071Y-101052380D01*
X90791214Y-102052380D02*
X90791214Y-101052380D01*
X91362642Y-102052380D01*
X91362642Y-101052380D01*
X92553119Y-101004761D02*
X91695976Y-102290476D01*
X93076928Y-101052380D02*
X93267404Y-101052380D01*
X93362642Y-101100000D01*
X93457880Y-101195238D01*
X93505500Y-101385714D01*
X93505500Y-101719047D01*
X93457880Y-101909523D01*
X93362642Y-102004761D01*
X93267404Y-102052380D01*
X93076928Y-102052380D01*
X92981690Y-102004761D01*
X92886452Y-101909523D01*
X92838833Y-101719047D01*
X92838833Y-101385714D01*
X92886452Y-101195238D01*
X92981690Y-101100000D01*
X93076928Y-101052380D01*
X94267404Y-101528571D02*
X93934071Y-101528571D01*
X93934071Y-102052380D02*
X93934071Y-101052380D01*
X94410261Y-101052380D01*
X95124547Y-101528571D02*
X94791214Y-101528571D01*
X94791214Y-102052380D02*
X94791214Y-101052380D01*
X95267404Y-101052380D01*
X89743595Y-98988571D02*
X90076928Y-98988571D01*
X90219785Y-99512380D02*
X89743595Y-99512380D01*
X89743595Y-98512380D01*
X90219785Y-98512380D01*
X90553119Y-98512380D02*
X91219785Y-99512380D01*
X91219785Y-98512380D02*
X90553119Y-99512380D01*
X91457880Y-98512380D02*
X92029309Y-98512380D01*
X91743595Y-99512380D02*
X91743595Y-98512380D01*
X92124547Y-99607619D02*
X92886452Y-99607619D01*
X93648357Y-98560000D02*
X93553119Y-98512380D01*
X93410261Y-98512380D01*
X93267404Y-98560000D01*
X93172166Y-98655238D01*
X93124547Y-98750476D01*
X93076928Y-98940952D01*
X93076928Y-99083809D01*
X93124547Y-99274285D01*
X93172166Y-99369523D01*
X93267404Y-99464761D01*
X93410261Y-99512380D01*
X93505500Y-99512380D01*
X93648357Y-99464761D01*
X93695976Y-99417142D01*
X93695976Y-99083809D01*
X93505500Y-99083809D01*
X94124547Y-99512380D02*
X94124547Y-98512380D01*
X94695976Y-99512380D01*
X94695976Y-98512380D01*
X95172166Y-99512380D02*
X95172166Y-98512380D01*
X95410261Y-98512380D01*
X95553119Y-98560000D01*
X95648357Y-98655238D01*
X95695976Y-98750476D01*
X95743595Y-98940952D01*
X95743595Y-99083809D01*
X95695976Y-99274285D01*
X95648357Y-99369523D01*
X95553119Y-99464761D01*
X95410261Y-99512380D01*
X95172166Y-99512380D01*
X89743595Y-93908571D02*
X90076928Y-93908571D01*
X90219785Y-94432380D02*
X89743595Y-94432380D01*
X89743595Y-93432380D01*
X90219785Y-93432380D01*
X90553119Y-93432380D02*
X91219785Y-94432380D01*
X91219785Y-93432380D02*
X90553119Y-94432380D01*
X91457880Y-93432380D02*
X92029309Y-93432380D01*
X91743595Y-94432380D02*
X91743595Y-93432380D01*
X92124547Y-94527619D02*
X92886452Y-94527619D01*
X93124547Y-94432380D02*
X93124547Y-93432380D01*
X93505500Y-93432380D01*
X93600738Y-93480000D01*
X93648357Y-93527619D01*
X93695976Y-93622857D01*
X93695976Y-93765714D01*
X93648357Y-93860952D01*
X93600738Y-93908571D01*
X93505500Y-93956190D01*
X93124547Y-93956190D01*
X94029309Y-93432380D02*
X94267404Y-94432380D01*
X94457880Y-93718095D01*
X94648357Y-94432380D01*
X94886452Y-93432380D01*
X95838833Y-94432380D02*
X95505500Y-93956190D01*
X95267404Y-94432380D02*
X95267404Y-93432380D01*
X95648357Y-93432380D01*
X95743595Y-93480000D01*
X95791214Y-93527619D01*
X95838833Y-93622857D01*
X95838833Y-93765714D01*
X95791214Y-93860952D01*
X95743595Y-93908571D01*
X95648357Y-93956190D01*
X95267404Y-93956190D01*
X89743595Y-91368571D02*
X90076928Y-91368571D01*
X90219785Y-91892380D02*
X89743595Y-91892380D01*
X89743595Y-90892380D01*
X90219785Y-90892380D01*
X90553119Y-90892380D02*
X91219785Y-91892380D01*
X91219785Y-90892380D02*
X90553119Y-91892380D01*
X91457880Y-90892380D02*
X92029309Y-90892380D01*
X91743595Y-91892380D02*
X91743595Y-90892380D01*
X92124547Y-91987619D02*
X92886452Y-91987619D01*
X93124547Y-91892380D02*
X93124547Y-90892380D01*
X93505500Y-90892380D01*
X93600738Y-90940000D01*
X93648357Y-90987619D01*
X93695976Y-91082857D01*
X93695976Y-91225714D01*
X93648357Y-91320952D01*
X93600738Y-91368571D01*
X93505500Y-91416190D01*
X93124547Y-91416190D01*
X94029309Y-90892380D02*
X94267404Y-91892380D01*
X94457880Y-91178095D01*
X94648357Y-91892380D01*
X94886452Y-90892380D01*
X95838833Y-91892380D02*
X95505500Y-91416190D01*
X95267404Y-91892380D02*
X95267404Y-90892380D01*
X95648357Y-90892380D01*
X95743595Y-90940000D01*
X95791214Y-90987619D01*
X95838833Y-91082857D01*
X95838833Y-91225714D01*
X95791214Y-91320952D01*
X95743595Y-91368571D01*
X95648357Y-91416190D01*
X95267404Y-91416190D01*
X86154285Y-84272380D02*
X86344761Y-84272380D01*
X86440000Y-84224761D01*
X86487619Y-84177142D01*
X86582857Y-84034285D01*
X86630476Y-83843809D01*
X86630476Y-83462857D01*
X86582857Y-83367619D01*
X86535238Y-83320000D01*
X86440000Y-83272380D01*
X86249523Y-83272380D01*
X86154285Y-83320000D01*
X86106666Y-83367619D01*
X86059047Y-83462857D01*
X86059047Y-83700952D01*
X86106666Y-83796190D01*
X86154285Y-83843809D01*
X86249523Y-83891428D01*
X86440000Y-83891428D01*
X86535238Y-83843809D01*
X86582857Y-83796190D01*
X86630476Y-83700952D01*
X87487619Y-83272380D02*
X87297142Y-83272380D01*
X87201904Y-83320000D01*
X87154285Y-83367619D01*
X87059047Y-83510476D01*
X87011428Y-83700952D01*
X87011428Y-84081904D01*
X87059047Y-84177142D01*
X87106666Y-84224761D01*
X87201904Y-84272380D01*
X87392380Y-84272380D01*
X87487619Y-84224761D01*
X87535238Y-84177142D01*
X87582857Y-84081904D01*
X87582857Y-83843809D01*
X87535238Y-83748571D01*
X87487619Y-83700952D01*
X87392380Y-83653333D01*
X87201904Y-83653333D01*
X87106666Y-83700952D01*
X87059047Y-83748571D01*
X87011428Y-83843809D01*
X88201904Y-83272380D02*
X88297142Y-83272380D01*
X88392380Y-83320000D01*
X88440000Y-83367619D01*
X88487619Y-83462857D01*
X88535238Y-83653333D01*
X88535238Y-83891428D01*
X88487619Y-84081904D01*
X88440000Y-84177142D01*
X88392380Y-84224761D01*
X88297142Y-84272380D01*
X88201904Y-84272380D01*
X88106666Y-84224761D01*
X88059047Y-84177142D01*
X88011428Y-84081904D01*
X87963809Y-83891428D01*
X87963809Y-83653333D01*
X88011428Y-83462857D01*
X88059047Y-83367619D01*
X88106666Y-83320000D01*
X88201904Y-83272380D01*
X88868571Y-83272380D02*
X89487619Y-83272380D01*
X89154285Y-83653333D01*
X89297142Y-83653333D01*
X89392380Y-83700952D01*
X89440000Y-83748571D01*
X89487619Y-83843809D01*
X89487619Y-84081904D01*
X89440000Y-84177142D01*
X89392380Y-84224761D01*
X89297142Y-84272380D01*
X89011428Y-84272380D01*
X88916190Y-84224761D01*
X88868571Y-84177142D01*
X91011428Y-83748571D02*
X91154285Y-83796190D01*
X91201904Y-83843809D01*
X91249523Y-83939047D01*
X91249523Y-84081904D01*
X91201904Y-84177142D01*
X91154285Y-84224761D01*
X91059047Y-84272380D01*
X90678095Y-84272380D01*
X90678095Y-83272380D01*
X91011428Y-83272380D01*
X91106666Y-83320000D01*
X91154285Y-83367619D01*
X91201904Y-83462857D01*
X91201904Y-83558095D01*
X91154285Y-83653333D01*
X91106666Y-83700952D01*
X91011428Y-83748571D01*
X90678095Y-83748571D01*
X91678095Y-84272380D02*
X91678095Y-83605714D01*
X91678095Y-83796190D02*
X91725714Y-83700952D01*
X91773333Y-83653333D01*
X91868571Y-83605714D01*
X91963809Y-83605714D01*
X92678095Y-84224761D02*
X92582857Y-84272380D01*
X92392380Y-84272380D01*
X92297142Y-84224761D01*
X92249523Y-84129523D01*
X92249523Y-83748571D01*
X92297142Y-83653333D01*
X92392380Y-83605714D01*
X92582857Y-83605714D01*
X92678095Y-83653333D01*
X92725714Y-83748571D01*
X92725714Y-83843809D01*
X92249523Y-83939047D01*
X93582857Y-84272380D02*
X93582857Y-83748571D01*
X93535238Y-83653333D01*
X93440000Y-83605714D01*
X93249523Y-83605714D01*
X93154285Y-83653333D01*
X93582857Y-84224761D02*
X93487619Y-84272380D01*
X93249523Y-84272380D01*
X93154285Y-84224761D01*
X93106666Y-84129523D01*
X93106666Y-84034285D01*
X93154285Y-83939047D01*
X93249523Y-83891428D01*
X93487619Y-83891428D01*
X93582857Y-83843809D01*
X94059047Y-84272380D02*
X94059047Y-83272380D01*
X94154285Y-83891428D02*
X94440000Y-84272380D01*
X94440000Y-83605714D02*
X94059047Y-83986666D01*
X95011428Y-84272380D02*
X94916190Y-84224761D01*
X94868571Y-84177142D01*
X94820952Y-84081904D01*
X94820952Y-83796190D01*
X94868571Y-83700952D01*
X94916190Y-83653333D01*
X95011428Y-83605714D01*
X95154285Y-83605714D01*
X95249523Y-83653333D01*
X95297142Y-83700952D01*
X95344761Y-83796190D01*
X95344761Y-84081904D01*
X95297142Y-84177142D01*
X95249523Y-84224761D01*
X95154285Y-84272380D01*
X95011428Y-84272380D01*
X96201904Y-83605714D02*
X96201904Y-84272380D01*
X95773333Y-83605714D02*
X95773333Y-84129523D01*
X95820952Y-84224761D01*
X95916190Y-84272380D01*
X96059047Y-84272380D01*
X96154285Y-84224761D01*
X96201904Y-84177142D01*
X96535238Y-83605714D02*
X96916190Y-83605714D01*
X96678095Y-83272380D02*
X96678095Y-84129523D01*
X96725714Y-84224761D01*
X96820952Y-84272380D01*
X96916190Y-84272380D01*
D11*
%TO.C,SAMTECH1*%
X107928000Y-117800000D02*
X107928000Y-117800000D01*
X107928000Y-117700000D02*
X107928000Y-117700000D01*
X107928000Y-117800000D02*
X107928000Y-117800000D01*
D12*
X111928000Y-116475000D02*
X113288000Y-116475000D01*
X113288000Y-116475000D02*
X113288000Y-112125000D01*
X113288000Y-112125000D02*
X111928000Y-112125000D01*
X107528000Y-116475000D02*
X105748000Y-116475000D01*
X105748000Y-116475000D02*
X105748000Y-112125000D01*
X105748000Y-112125000D02*
X107528000Y-112125000D01*
D11*
X107928000Y-117700000D02*
G75*
G02*
X107928000Y-117800000I0J-50000D01*
G01*
X107928000Y-117800000D02*
G75*
G02*
X107928000Y-117700000I0J50000D01*
G01*
X107928000Y-117700000D02*
G75*
G02*
X107928000Y-117800000I0J-50000D01*
G01*
%TD*%
M02*
